{
    "computeEnvironmentName": "aws-batch-custom-ami",
    "type": "MANAGED",
    "state": "ENABLED",
    "computeResources": {
        "type": "EC2",
        "allocationStrategy": "BEST_FIT_PROGRESSIVE",
        "minvCpus": 1,
        "maxvCpus": 256,
        "desiredvCpus": 1,
        "instanceTypes": [
            "optimal"
        ],
        "subnets": [
            "subnet-xxxx",
            "subnet-xxxx"
        ],
        "securityGroupIds": [
            "sg-xxxx"
        ],
        "ec2KeyPair": "xxxx",
        "instanceRole": "arn:aws:iam::xxxx:instance-profile/xxxx",
        "tags": {
            "Name": "ge-batch-processing"
        },
        "launchTemplate": {
            "launchTemplateId": "lt-xxxx",
            "version": "$Default"
        }
    },
    "serviceRole": "arn:aws:iam::xxxx:role/service-role/AWSBatchServiceRole"
}